^C:\USERS\REASO\SOURCE\REPOS\PROT NIERUCH\PROT NIERUCH\MAINWINDOW.CPP|C:\USERS\REASO\SOURCE\REPOS\PROT NIERUCH\PROT NIERUCH\NIERUCHOMOSCWINDOW.CPP
C:\USERS\REASO\SOURCE\REPOS\PROT NIERUCH\PROT NIERUCH\X64\DEBUG\VC141.PDB
C:\USERS\REASO\SOURCE\REPOS\PROT NIERUCH\PROT NIERUCH\X64\DEBUG\NIERUCHOMOSCWINDOW.OBJ
C:\USERS\REASO\SOURCE\REPOS\PROT NIERUCH\PROT NIERUCH\X64\DEBUG\MAINWINDOW.OBJ
^C:\USERS\REASO\SOURCE\REPOS\PROT NIERUCH\PROT NIERUCH\NIERUCHOMOSCWINDOW.CPP
C:\USERS\REASO\SOURCE\REPOS\PROT NIERUCH\PROT NIERUCH\X64\DEBUG\VC141.PDB
^C:\USERS\REASO\APPDATA\LOCAL\TEMP\.NETFRAMEWORK,VERSION=V4.6.1.ASSEMBLYATTRIBUTES.CPP
C:\USERS\REASO\SOURCE\REPOS\PROT NIERUCH\PROT NIERUCH\X64\DEBUG\VC141.PDB
C:\USERS\REASO\SOURCE\REPOS\PROT NIERUCH\PROT NIERUCH\X64\DEBUG\.NETFRAMEWORK,VERSION=V4.6.1.ASSEMBLYATTRIBUTES.OBJ
C:\USERS\REASO\SOURCE\REPOS\PROT NIERUCH\PROT NIERUCH\X64\DEBUG\.NETFRAMEWORK,VERSION=V4.6.1.ASSEMBLYATTRIBUTES.ASM
^C:\USERS\REASO\SOURCE\REPOS\PROT NIERUCH\PROT NIERUCH\MAINWINDOW.CPP
C:\USERS\REASO\SOURCE\REPOS\PROT NIERUCH\PROT NIERUCH\X64\DEBUG\VC141.PDB
C:\USERS\REASO\SOURCE\REPOS\PROT NIERUCH\PROT NIERUCH\X64\DEBUG\MAINWINDOW.OBJ
^C:\USERS\USER\DESKTOP\PROT NIERUCH\PROT NIERUCH\MAINWINDOW.CPP|C:\USERS\USER\DESKTOP\PROT NIERUCH\PROT NIERUCH\NIERUCHOMOSCWINDOW.CPP
C:\USERS\USER\DESKTOP\PROT NIERUCH\PROT NIERUCH\X64\DEBUG\VC141.PDB
C:\USERS\USER\DESKTOP\PROT NIERUCH\PROT NIERUCH\X64\DEBUG\NIERUCHOMOSCWINDOW.OBJ
C:\USERS\USER\DESKTOP\PROT NIERUCH\PROT NIERUCH\X64\DEBUG\MAINWINDOW.OBJ
^C:\USERS\USER\DESKTOP\PROT NIERUCH\PROT NIERUCH\MAINWINDOW.CPP
C:\USERS\USER\DESKTOP\PROT NIERUCH\PROT NIERUCH\X64\DEBUG\VC141.PDB
^C:\USERS\USER\DESKTOP\PROT NIERUCH\PROT NIERUCH\NIERUCHOMOSCWINDOW.CPP
C:\USERS\USER\DESKTOP\PROT NIERUCH\PROT NIERUCH\X64\DEBUG\VC141.PDB
^C:\USERS\USER\APPDATA\LOCAL\TEMP\.NETFRAMEWORK,VERSION=V4.6.1.ASSEMBLYATTRIBUTES.CPP
C:\USERS\USER\DESKTOP\PROT NIERUCH\PROT NIERUCH\X64\DEBUG\VC141.PDB
C:\USERS\USER\DESKTOP\PROT NIERUCH\PROT NIERUCH\X64\DEBUG\.NETFRAMEWORK,VERSION=V4.6.1.ASSEMBLYATTRIBUTES.OBJ
C:\USERS\USER\DESKTOP\PROT NIERUCH\PROT NIERUCH\X64\DEBUG\.NETFRAMEWORK,VERSION=V4.6.1.ASSEMBLYATTRIBUTES.ASM
